<svg width="80" height="80" viewBox="0 0 80 80" fill="none" xmlns="http://www.w3.org/2000/svg">
<path d="M53.25 26.25L26.25 53.25" stroke="black"/>
<path d="M26.25 26.25L53.25 53.25" stroke="black"/>
</svg>
