<svg width="34" height="19" viewBox="0 0 34 19" fill="none" xmlns="http://www.w3.org/2000/svg">
<path d="M9.68404 18.248L9.16877 18.7976L0.203125 9.79761L9.16877 0.797607L9.68404 1.34723L1.61152 9.41974L33.7985 9.41974V10.1755L1.61152 10.1755L9.68404 18.248Z" fill="black"/>
</svg>
